C:\dev\420-517\jag_project\src\main\java\com\obied\beans\MailConfigBean.java
C:\dev\420-517\jag_project\src\main\java\com\obied\controllers\AboutWebViewController.java
C:\dev\420-517\jag_project\src\main\java\com\obied\controllers\EmailFXTableLayoutController.java
C:\dev\420-517\jag_project\src\main\java\com\obied\controllers\RootLayoutController.java
C:\dev\420-517\jag_project\src\main\java\com\obied\controllers\config\EmailFXMailConfigFormController.java
C:\dev\420-517\jag_project\src\main\java\com\obied\controllers\EmailFXTreeLayoutController.java
C:\dev\420-517\jag_project\src\main\java\com\obied\jag_project\MainApp.java
C:\dev\420-517\jag_project\src\main\java\com\obied\controllers\EmailFXHTMLLayoutController.java
C:\dev\420-517\jag_project\src\main\java\com\obied\persistence\EmailDAOimpl.java
C:\dev\420-517\jag_project\src\main\java\com\obied\exception\FolderAlreadyExistsException.java
C:\dev\420-517\jag_project\src\main\java\com\obied\exception\CannotRenameFolderException.java
C:\dev\420-517\jag_project\src\main\java\com\obied\exception\InvalidEmailFormatException.java
C:\dev\420-517\jag_project\src\main\java\com\obied\beans\propertiesmanager\PropertiesManager.java
C:\dev\420-517\jag_project\src\main\java\com\obied\exception\NoEmailFoundException.java
C:\dev\420-517\jag_project\src\main\java\com\obied\beans\javaFX\FolderBean.java
C:\dev\420-517\jag_project\src\main\java\com\obied\business\SendAndReceive.java
C:\dev\420-517\jag_project\src\main\java\com\obied\exception\InvalidDeleteFolderException.java
C:\dev\420-517\jag_project\src\main\java\com\obied\beans\javaFX\FormBean.java
C:\dev\420-517\jag_project\src\main\java\com\obied\jag_project\MainAppFX.java
C:\dev\420-517\jag_project\src\main\java\com\obied\beans\javaFX\HTMLEditorBean.java
C:\dev\420-517\jag_project\src\main\java\com\obied\beans\EmailBean.java
C:\dev\420-517\jag_project\src\main\java\com\obied\beans\javaFX\EmailTableBean.java
C:\dev\420-517\jag_project\src\main\java\com\obied\persistence\EmailDAO.java
